%YAML 1.1
%TAG !u! tag:unity3d.com,2011:
--- !u!114 &11400000
MonoBehaviour:
  m_ObjectHideFlags: 0
  m_CorrespondingSourceObject: {fileID: 0}
  m_PrefabInstance: {fileID: 0}
  m_PrefabAsset: {fileID: 0}
  m_GameObject: {fileID: 0}
  m_Enabled: 1
  m_EditorHideFlags: 0
  m_Script: {fileID: 11500000, guid: 6144c935a564ceb4ab060e0b8a4d7d19, type: 3}
  m_Name: A5900404-D394-4423-BA7D-A679D4EC3E8A
  m_EditorClassIdentifier: 
  objectName: VOICE_SNB
  id: 133924915
  guid: A5900404-D394-4423-BA7D-A679D4EC3E8A
