%YAML 1.1
%TAG !u! tag:unity3d.com,2011:
--- !u!114 &11400000
MonoBehaviour:
  m_ObjectHideFlags: 0
  m_CorrespondingSourceObject: {fileID: 0}
  m_PrefabInstance: {fileID: 0}
  m_PrefabAsset: {fileID: 0}
  m_GameObject: {fileID: 0}
  m_Enabled: 1
  m_EditorHideFlags: 0
  m_Script: {fileID: 11500000, guid: 987189a8e1732824ab0b351cb0e02fac, type: 3}
  m_Name: 1022088C-F4EE-43BF-BE94-7E5B64EDE8EA
  m_EditorClassIdentifier: 
  objectName: RVB_Exterior
  id: 3801984506
  guid: 1022088C-F4EE-43BF-BE94-7E5B64EDE8EA
