%YAML 1.1
%TAG !u! tag:unity3d.com,2011:
--- !u!1001 &5563472296003564059
PrefabInstance:
  m_ObjectHideFlags: 0
  serializedVersion: 2
  m_Modification:
    m_TransformParent: {fileID: 0}
    m_Modifications:
    - target: {fileID: 7074823353089440561, guid: 67867f2676f95414daeec9419cf739e2,
        type: 3}
      propertyPath: m_IsActive
      value: 0
      objectReference: {fileID: 0}
    - target: {fileID: 7455482860166529482, guid: 67867f2676f95414daeec9419cf739e2,
        type: 3}
      propertyPath: m_LocalPosition.x
      value: -213.67706
      objectReference: {fileID: 0}
    - target: {fileID: 7455482860166529482, guid: 67867f2676f95414daeec9419cf739e2,
        type: 3}
      propertyPath: m_LocalPosition.y
      value: -50
      objectReference: {fileID: 0}
    - target: {fileID: 7455482860166529482, guid: 67867f2676f95414daeec9419cf739e2,
        type: 3}
      propertyPath: m_LocalPosition.z
      value: -243.51836
      objectReference: {fileID: 0}
    - target: {fileID: 7455482860166529482, guid: 67867f2676f95414daeec9419cf739e2,
        type: 3}
      propertyPath: m_LocalRotation.x
      value: 0.71065736
      objectReference: {fileID: 0}
    - target: {fileID: 7455482860166529482, guid: 67867f2676f95414daeec9419cf739e2,
        type: 3}
      propertyPath: m_LocalRotation.y
      value: -0
      objectReference: {fileID: 0}
    - target: {fileID: 7455482860166529482, guid: 67867f2676f95414daeec9419cf739e2,
        type: 3}
      propertyPath: m_LocalRotation.z
      value: -0
      objectReference: {fileID: 0}
    - target: {fileID: 7455482860166529482, guid: 67867f2676f95414daeec9419cf739e2,
        type: 3}
      propertyPath: m_LocalRotation.w
      value: 0.70353836
      objectReference: {fileID: 0}
    - target: {fileID: 7455482860166529482, guid: 67867f2676f95414daeec9419cf739e2,
        type: 3}
      propertyPath: m_RootOrder
      value: 0
      objectReference: {fileID: 0}
    - target: {fileID: 7455482860166529482, guid: 67867f2676f95414daeec9419cf739e2,
        type: 3}
      propertyPath: m_LocalEulerAnglesHint.x
      value: 0
      objectReference: {fileID: 0}
    - target: {fileID: 7455482860166529482, guid: 67867f2676f95414daeec9419cf739e2,
        type: 3}
      propertyPath: m_LocalEulerAnglesHint.y
      value: 0
      objectReference: {fileID: 0}
    - target: {fileID: 7455482860166529482, guid: 67867f2676f95414daeec9419cf739e2,
        type: 3}
      propertyPath: m_LocalEulerAnglesHint.z
      value: 0
      objectReference: {fileID: 0}
    - target: {fileID: 7455482860166529483, guid: 67867f2676f95414daeec9419cf739e2,
        type: 3}
      propertyPath: m_Name
      value: settings Variant
      objectReference: {fileID: 0}
    - target: {fileID: 7455482860166529483, guid: 67867f2676f95414daeec9419cf739e2,
        type: 3}
      propertyPath: m_IsActive
      value: 1
      objectReference: {fileID: 0}
    - target: {fileID: 7455482861376869811, guid: 67867f2676f95414daeec9419cf739e2,
        type: 3}
      propertyPath: m_IsActive
      value: 0
      objectReference: {fileID: 0}
    - target: {fileID: 8380566141578131503, guid: 67867f2676f95414daeec9419cf739e2,
        type: 3}
      propertyPath: m_IsActive
      value: 0
      objectReference: {fileID: 0}
    m_RemovedComponents: []
  m_SourcePrefab: {fileID: 100100000, guid: 67867f2676f95414daeec9419cf739e2, type: 3}
