%YAML 1.1
%TAG !u! tag:unity3d.com,2011:
--- !u!114 &11400000
MonoBehaviour:
  m_ObjectHideFlags: 0
  m_CorrespondingSourceObject: {fileID: 0}
  m_PrefabInstance: {fileID: 0}
  m_PrefabAsset: {fileID: 0}
  m_GameObject: {fileID: 0}
  m_Enabled: 1
  m_EditorHideFlags: 0
  m_Script: {fileID: 11500000, guid: 55f8c9153904d2a4d98cc57b26f9e96f, type: 3}
  m_Name: 44E9B04C-DDDD-4F5F-94B7-54E8274A6AAF
  m_EditorClassIdentifier: 
  objectName: UI_Menu_Main_Rollover
  id: 2571098351
  guid: 44E9B04C-DDDD-4F5F-94B7-54E8274A6AAF
