{
 "PluginInfo": {
  "Project": "DeathStare_WwiseProject",
  "Platform": "Mac",
  "BasePlatform": "Mac",
  "Plugins": [
   {
    "Name": "Wwise Parametric EQ",
    "ID": "6881283",
    "DLL": "AkParametricEQ"
   },
   {
    "Name": "Wwise RoomVerb",
    "ID": "7733251",
    "DLL": "AkRoomVerb"
   },
   {
    "Name": "Wwise Convolution Reverb",
    "ID": "8323075",
    "DLL": "AkConvolutionReverb"
   },
   {
    "Name": "Wwise Meter",
    "ID": "8454147",
    "DLL": "AkSoundEngineDLL"
   },
   {
    "Name": "Wwise Recorder",
    "ID": "8650755",
    "DLL": "AkRecorder"
   },
   {
    "Name": "System",
    "ID": "11403271",
    "DLL": "DefaultSink"
   },
   {
    "Name": "No Output",
    "ID": "11862023",
    "DLL": "DefaultSink"
   }
  ]
 }
}