%YAML 1.1
%TAG !u! tag:unity3d.com,2011:
--- !u!221 &22100000
AnimatorOverrideController:
  m_ObjectHideFlags: 0
  m_CorrespondingSourceObject: {fileID: 0}
  m_PrefabInstance: {fileID: 0}
  m_PrefabAsset: {fileID: 0}
  m_Name: yeux stan
  m_Controller: {fileID: 9100000, guid: 17362f92643597f4aa04abf7bca84a3d, type: 2}
  m_Clips:
  - m_OriginalClip: {fileID: 7400000, guid: 0472e44de02fefb45b22d2e05963fa3a, type: 2}
    m_OverrideClip: {fileID: 7400000, guid: b505d260e36ed8c4f8a477e6afaad021, type: 2}
  - m_OriginalClip: {fileID: 7400000, guid: 232c9e3b71edf9f4c8b2eccfe2b5216a, type: 2}
    m_OverrideClip: {fileID: 7400000, guid: 6ae510f696cfe0d4fbbbd75e47a978ad, type: 2}
  - m_OriginalClip: {fileID: 7400000, guid: 1348fe285ac3a994c92ee734806b95a8, type: 2}
    m_OverrideClip: {fileID: 7400000, guid: 1cb25d31a62c8084aab6490fc230b456, type: 2}
  - m_OriginalClip: {fileID: 7400000, guid: 8fdc37b4e3f0e824aad3a3da5fbf2995, type: 2}
    m_OverrideClip: {fileID: 7400000, guid: 38e764d545c34ed46afe1ca4fae1b339, type: 2}
