%YAML 1.1
%TAG !u! tag:unity3d.com,2011:
--- !u!1001 &2707555569430285373
PrefabInstance:
  m_ObjectHideFlags: 0
  serializedVersion: 2
  m_Modification:
    m_TransformParent: {fileID: 0}
    m_Modifications:
    - target: {fileID: 6307593994593660523, guid: 48d25e37256827f40af88423c6af1474,
        type: 3}
      propertyPath: InitialModule.startSize.minScalar
      value: 0.94
      objectReference: {fileID: 0}
    - target: {fileID: 6307593994593660523, guid: 48d25e37256827f40af88423c6af1474,
        type: 3}
      propertyPath: InitialModule.startSize.scalar
      value: 0.66
      objectReference: {fileID: 0}
    - target: {fileID: 6307593994593660523, guid: 48d25e37256827f40af88423c6af1474,
        type: 3}
      propertyPath: InitialModule.startSizeY.scalar
      value: 0.55
      objectReference: {fileID: 0}
    - target: {fileID: 6307593994593660523, guid: 48d25e37256827f40af88423c6af1474,
        type: 3}
      propertyPath: InitialModule.startSizeY.minScalar
      value: 0.54
      objectReference: {fileID: 0}
    - target: {fileID: 6307593994844491296, guid: 48d25e37256827f40af88423c6af1474,
        type: 3}
      propertyPath: m_Name
      value: IL3DN_Clouds Variant
      objectReference: {fileID: 0}
    - target: {fileID: 6307593994844491299, guid: 48d25e37256827f40af88423c6af1474,
        type: 3}
      propertyPath: m_LocalPosition.x
      value: 0
      objectReference: {fileID: 0}
    - target: {fileID: 6307593994844491299, guid: 48d25e37256827f40af88423c6af1474,
        type: 3}
      propertyPath: m_LocalPosition.y
      value: 0
      objectReference: {fileID: 0}
    - target: {fileID: 6307593994844491299, guid: 48d25e37256827f40af88423c6af1474,
        type: 3}
      propertyPath: m_LocalPosition.z
      value: 0
      objectReference: {fileID: 0}
    - target: {fileID: 6307593994844491299, guid: 48d25e37256827f40af88423c6af1474,
        type: 3}
      propertyPath: m_LocalRotation.x
      value: -0
      objectReference: {fileID: 0}
    - target: {fileID: 6307593994844491299, guid: 48d25e37256827f40af88423c6af1474,
        type: 3}
      propertyPath: m_LocalRotation.y
      value: -0
      objectReference: {fileID: 0}
    - target: {fileID: 6307593994844491299, guid: 48d25e37256827f40af88423c6af1474,
        type: 3}
      propertyPath: m_LocalRotation.z
      value: -0
      objectReference: {fileID: 0}
    - target: {fileID: 6307593994844491299, guid: 48d25e37256827f40af88423c6af1474,
        type: 3}
      propertyPath: m_LocalRotation.w
      value: 1
      objectReference: {fileID: 0}
    - target: {fileID: 6307593994844491299, guid: 48d25e37256827f40af88423c6af1474,
        type: 3}
      propertyPath: m_RootOrder
      value: 0
      objectReference: {fileID: 0}
    - target: {fileID: 6307593994844491299, guid: 48d25e37256827f40af88423c6af1474,
        type: 3}
      propertyPath: m_LocalEulerAnglesHint.x
      value: 0
      objectReference: {fileID: 0}
    - target: {fileID: 6307593994844491299, guid: 48d25e37256827f40af88423c6af1474,
        type: 3}
      propertyPath: m_LocalEulerAnglesHint.y
      value: 0
      objectReference: {fileID: 0}
    - target: {fileID: 6307593994844491299, guid: 48d25e37256827f40af88423c6af1474,
        type: 3}
      propertyPath: m_LocalEulerAnglesHint.z
      value: 0
      objectReference: {fileID: 0}
    - target: {fileID: 6307593995877275434, guid: 48d25e37256827f40af88423c6af1474,
        type: 3}
      propertyPath: InitialModule.startSize.minScalar
      value: 0.76
      objectReference: {fileID: 0}
    - target: {fileID: 6307593995877275434, guid: 48d25e37256827f40af88423c6af1474,
        type: 3}
      propertyPath: InitialModule.startSize.scalar
      value: 0.88
      objectReference: {fileID: 0}
    m_RemovedComponents: []
  m_SourcePrefab: {fileID: 100100000, guid: 48d25e37256827f40af88423c6af1474, type: 3}
