%YAML 1.1
%TAG !u! tag:unity3d.com,2011:
--- !u!221 &22100000
AnimatorOverrideController:
  m_ObjectHideFlags: 0
  m_CorrespondingSourceObject: {fileID: 0}
  m_PrefabInstance: {fileID: 0}
  m_PrefabAsset: {fileID: 0}
  m_Name: ControllerDon
  m_Controller: {fileID: 9100000, guid: b5acea7ae253e15478475c6cf56c9645, type: 2}
  m_Clips:
  - m_OriginalClip: {fileID: -6539506098491636239, guid: 564b3f1f1654c9047912d8c5a0076226,
      type: 3}
    m_OverrideClip: {fileID: 7400000, guid: cb4aa5f14b820b14692d2d67f3a1b1f9, type: 2}
  - m_OriginalClip: {fileID: 7400000, guid: bfa8508e2ef63294f9aa4ab8b02fa820, type: 2}
    m_OverrideClip: {fileID: 7400000, guid: cf26be6777e37764a83710628869bc61, type: 2}
  - m_OriginalClip: {fileID: 7400000, guid: 6771d348e8600af4abf465640d6a3a90, type: 2}
    m_OverrideClip: {fileID: 7400000, guid: 1afdce0483756b34da7dafbf7f30de76, type: 2}
  - m_OriginalClip: {fileID: 8968197694290683220, guid: 564b3f1f1654c9047912d8c5a0076226,
      type: 3}
    m_OverrideClip: {fileID: 7400000, guid: df8937d338a65b64eb75f884b91c2f1b, type: 2}
  - m_OriginalClip: {fileID: 8497145277678188838, guid: 564b3f1f1654c9047912d8c5a0076226,
      type: 3}
    m_OverrideClip: {fileID: 7400000, guid: 093bb03e10cdf00468c0cd9c50fd0bb4, type: 2}
  - m_OriginalClip: {fileID: 7400000, guid: f1f39aa2d216c66418ec88a758749930, type: 2}
    m_OverrideClip: {fileID: 7400000, guid: 56162e42f4770c14ab069a05e32e23a4, type: 2}
  - m_OriginalClip: {fileID: 7400000, guid: eec1d3447fbcc1943a4f9dcdd56dd103, type: 2}
    m_OverrideClip: {fileID: 7400000, guid: 56162e42f4770c14ab069a05e32e23a4, type: 2}
  - m_OriginalClip: {fileID: 7400000, guid: f8754db788788fa49baf7f3b78136b0d, type: 2}
    m_OverrideClip: {fileID: 7400000, guid: 62451f7a92eb88e48ae8e37bb966de56, type: 2}
  - m_OriginalClip: {fileID: 7400000, guid: f53fd7181133e604fa05d3a8de9d696b, type: 2}
    m_OverrideClip: {fileID: 7400000, guid: 21830316090a4de4ca6edbf0829b523c, type: 2}
