%YAML 1.1
%TAG !u! tag:unity3d.com,2011:
--- !u!1001 &6712588592563839060
PrefabInstance:
  m_ObjectHideFlags: 0
  serializedVersion: 2
  m_Modification:
    m_TransformParent: {fileID: 0}
    m_Modifications:
    - target: {fileID: 6307593994844491296, guid: 48d25e37256827f40af88423c6af1474,
        type: 3}
      propertyPath: m_Name
      value: Clouds Variant
      objectReference: {fileID: 0}
    - target: {fileID: 6307593994844491298, guid: 48d25e37256827f40af88423c6af1474,
        type: 3}
      propertyPath: prewarm
      value: 1
      objectReference: {fileID: 0}
    - target: {fileID: 6307593994844491299, guid: 48d25e37256827f40af88423c6af1474,
        type: 3}
      propertyPath: m_LocalPosition.x
      value: -22.6
      objectReference: {fileID: 0}
    - target: {fileID: 6307593994844491299, guid: 48d25e37256827f40af88423c6af1474,
        type: 3}
      propertyPath: m_LocalPosition.y
      value: 51.7
      objectReference: {fileID: 0}
    - target: {fileID: 6307593994844491299, guid: 48d25e37256827f40af88423c6af1474,
        type: 3}
      propertyPath: m_LocalPosition.z
      value: 35.5
      objectReference: {fileID: 0}
    - target: {fileID: 6307593994844491299, guid: 48d25e37256827f40af88423c6af1474,
        type: 3}
      propertyPath: m_LocalRotation.x
      value: -0
      objectReference: {fileID: 0}
    - target: {fileID: 6307593994844491299, guid: 48d25e37256827f40af88423c6af1474,
        type: 3}
      propertyPath: m_LocalRotation.y
      value: -0
      objectReference: {fileID: 0}
    - target: {fileID: 6307593994844491299, guid: 48d25e37256827f40af88423c6af1474,
        type: 3}
      propertyPath: m_LocalRotation.z
      value: -0
      objectReference: {fileID: 0}
    - target: {fileID: 6307593994844491299, guid: 48d25e37256827f40af88423c6af1474,
        type: 3}
      propertyPath: m_LocalRotation.w
      value: 1
      objectReference: {fileID: 0}
    - target: {fileID: 6307593994844491299, guid: 48d25e37256827f40af88423c6af1474,
        type: 3}
      propertyPath: m_RootOrder
      value: 0
      objectReference: {fileID: 0}
    - target: {fileID: 6307593994844491299, guid: 48d25e37256827f40af88423c6af1474,
        type: 3}
      propertyPath: m_LocalEulerAnglesHint.x
      value: 0
      objectReference: {fileID: 0}
    - target: {fileID: 6307593994844491299, guid: 48d25e37256827f40af88423c6af1474,
        type: 3}
      propertyPath: m_LocalEulerAnglesHint.y
      value: 0
      objectReference: {fileID: 0}
    - target: {fileID: 6307593994844491299, guid: 48d25e37256827f40af88423c6af1474,
        type: 3}
      propertyPath: m_LocalEulerAnglesHint.z
      value: 0
      objectReference: {fileID: 0}
    m_RemovedComponents: []
  m_SourcePrefab: {fileID: 100100000, guid: 48d25e37256827f40af88423c6af1474, type: 3}
