{
 "SoundBanksInfo": {
  "Platform": "Linux",
  "BasePlatform": "Linux",
  "SchemaVersion": "12",
  "SoundbankVersion": "135",
  "RootPaths": {
   "ProjectRoot": "D:\\Documents\\- ENJMIN\\- PROJETS\\H - Mini Projet\\Repo\\DeathStare\\DeathStare_WwiseProject\\",
   "SourceFilesRoot": "D:\\Documents\\- ENJMIN\\- PROJETS\\H - Mini Projet\\Repo\\DeathStare\\DeathStare_WwiseProject\\.cache\\Linux\\",
   "SoundBanksRoot": "D:\\Documents\\- ENJMIN\\- PROJETS\\H - Mini Projet\\Repo\\DeathStare\\Assets\\StreamingAssets\\Audio\\GeneratedSoundBanks\\Linux\\",
   "ExternalSourcesInputFile": "",
   "ExternalSourcesOutputRoot": "D:\\Documents\\- ENJMIN\\- PROJETS\\H - Mini Projet\\Repo\\DeathStare\\DeathStare_WwiseProject\\GeneratedSoundBanks\\Linux"
  },
  "SoundBanks": [
   {
    "Id": "456350585",
    "GUID": "{6BD36206-94C7-4090-85F6-4A1DA42E6C81}",
    "Language": "SFX",
    "ObjectPath": "\\SoundBanks\\DS SNB\\GENERAL_SNB",
    "ShortName": "GENERAL_SNB",
    "Path": "GENERAL_SNB.bnk",
    "IncludedEvents": [
     {
      "Id": "3864097025",
      "Name": "Pause_All",
      "ObjectPath": "\\Events\\DS EVENTS\\GENERAL EVENTS\\Pause_All",
      "GUID": "{E4F4FB2F-F747-4B50-86D7-AE1E1C17D541}",
      "MaxAttenuation": "0.000000",
      "DurationType": "OneShot",
      "DurationMin": "0.000000",
      "DurationMax": "0.000000"
     },
     {
      "Id": "3679762312",
      "Name": "Resume_All",
      "ObjectPath": "\\Events\\DS EVENTS\\GENERAL EVENTS\\Resume_All",
      "GUID": "{2C28F8EB-E526-402D-85BD-32A757F8324F}",
      "MaxAttenuation": "0.000000",
      "DurationType": "OneShot",
      "DurationMin": "0.000000",
      "DurationMax": "0.000000"
     },
     {
      "Id": "59600196",
      "Name": "Stop_All_Soft",
      "ObjectPath": "\\Events\\DS EVENTS\\GENERAL EVENTS\\Stop_All_Soft",
      "GUID": "{CBFC9395-41C0-40DB-A8DB-EF207D23E8EF}",
      "MaxAttenuation": "0.000000",
      "DurationType": "OneShot",
      "DurationMin": "0.000000",
      "DurationMax": "0.000000"
     }
    ],
    "IncludedAuxBusses": [
     {
      "Id": "226212192",
      "Name": "RVB_RoomMedium",
      "ObjectPath": "\\Master-Mixer Hierarchy\\DS MIX\\Master\\Aux\\RVB_RoomMedium",
      "GUID": "{9FCE2A88-E310-4899-A46C-B97BC09CEB7F}"
     },
     {
      "Id": "429702506",
      "Name": "RVB_RoomSmall",
      "ObjectPath": "\\Master-Mixer Hierarchy\\DS MIX\\Master\\Aux\\RVB_RoomSmall",
      "GUID": "{95EADF8B-8E39-4770-BAC1-4B47940747AD}"
     },
     {
      "Id": "444410022",
      "Name": "Prior_04_Slow",
      "ObjectPath": "\\Master-Mixer Hierarchy\\DS MIX\\Master\\PriorAux\\Prior_04_Slow",
      "GUID": "{94B60CF6-3573-4999-8684-AD41B62E8823}"
     },
     {
      "Id": "491446543",
      "Name": "Prior_04_Fast",
      "ObjectPath": "\\Master-Mixer Hierarchy\\DS MIX\\Master\\PriorAux\\Prior_04_Fast",
      "GUID": "{F94842D9-422D-40AE-872C-FF60D1DC8EB8}"
     },
     {
      "Id": "808284948",
      "Name": "Prior_01_Fast",
      "ObjectPath": "\\Master-Mixer Hierarchy\\DS MIX\\Master\\PriorAux\\Prior_01_Fast",
      "GUID": "{A907C12B-31AA-4B61-A9C2-819A3DA0A1ED}"
     },
     {
      "Id": "989439445",
      "Name": "Prior_01_Slow",
      "ObjectPath": "\\Master-Mixer Hierarchy\\DS MIX\\Master\\PriorAux\\Prior_01_Slow",
      "GUID": "{1389CDB8-BB98-4444-AD9E-554D30223494}"
     },
     {
      "Id": "1369990425",
      "Name": "Prior_02_Fast",
      "ObjectPath": "\\Master-Mixer Hierarchy\\DS MIX\\Master\\PriorAux\\Prior_02_Fast",
      "GUID": "{BA8DF5B3-7EE8-4750-9D7B-F129D153C76C}"
     },
     {
      "Id": "1692131274",
      "Name": "RVB_Tunnel",
      "ObjectPath": "\\Master-Mixer Hierarchy\\DS MIX\\Master\\Aux\\RVB_Tunnel",
      "GUID": "{9A616EAF-311D-4F2E-80C1-D38CF96F8B32}"
     },
     {
      "Id": "1834964976",
      "Name": "Prior_05_Fast",
      "ObjectPath": "\\Master-Mixer Hierarchy\\DS MIX\\Master\\PriorAux\\Prior_05_Fast",
      "GUID": "{EDDC515D-5D63-4181-8CF3-8364BF0D1E25}"
     },
     {
      "Id": "2709619631",
      "Name": "Prior_03_Slow",
      "ObjectPath": "\\Master-Mixer Hierarchy\\DS MIX\\Master\\PriorAux\\Prior_03_Slow",
      "GUID": "{EB12B5D9-35D3-4E46-A18B-08C5191103F5}"
     },
     {
      "Id": "3139664290",
      "Name": "Prior_03_Fast",
      "ObjectPath": "\\Master-Mixer Hierarchy\\DS MIX\\Master\\PriorAux\\Prior_03_Fast",
      "GUID": "{AB9710D0-F2EC-4489-84C7-9273BE1FAB9B}"
     },
     {
      "Id": "3148728066",
      "Name": "RVB_Corridor",
      "ObjectPath": "\\Master-Mixer Hierarchy\\DS MIX\\Master\\Aux\\RVB_Corridor",
      "GUID": "{3852A349-117D-4613-A408-09EDCEE71052}"
     },
     {
      "Id": "3797936356",
      "Name": "Prior_02_Slow",
      "ObjectPath": "\\Master-Mixer Hierarchy\\DS MIX\\Master\\PriorAux\\Prior_02_Slow",
      "GUID": "{6FBDDC5C-CDED-45BC-B6B7-C2E443A57A21}"
     },
     {
      "Id": "3801984506",
      "Name": "RVB_Exterior",
      "ObjectPath": "\\Master-Mixer Hierarchy\\DS MIX\\Master\\Aux\\RVB_Exterior",
      "GUID": "{1022088C-F4EE-43BF-BE94-7E5B64EDE8EA}"
     },
     {
      "Id": "4001587643",
      "Name": "RVB_Cave",
      "ObjectPath": "\\Master-Mixer Hierarchy\\DS MIX\\Master\\Aux\\RVB_Cave",
      "GUID": "{394AA4A3-6CAD-4A28-B128-C5B5219798D6}"
     },
     {
      "Id": "4188538041",
      "Name": "Prior_05_Slow",
      "ObjectPath": "\\Master-Mixer Hierarchy\\DS MIX\\Master\\PriorAux\\Prior_05_Slow",
      "GUID": "{7D0AAD89-81BA-4E61-8EA9-E0F603FB9CF7}"
     }
    ],
    "IncludedMemoryFiles": [
     {
      "Id": "19306234",
      "Language": "SFX",
      "ShortName": "Valley, Low, Forest 30m.wav",
      "Path": "Plugins\\Wwise Convolution Reverb\\Valley, Low, Forest 30m_8149B041.wem"
     },
     {
      "Id": "25909241",
      "Language": "SFX",
      "ShortName": "Chamber 3.wav",
      "Path": "Plugins\\Wwise Convolution Reverb\\Chamber 3_515A5518.wem"
     },
     {
      "Id": "238217046",
      "Language": "SFX",
      "ShortName": "Forest, Small Trees 20m.wav",
      "Path": "Plugins\\Wwise Convolution Reverb\\Forest, Small Trees 20m_1D35CBEE.wem"
     },
     {
      "Id": "541288720",
      "Language": "SFX",
      "ShortName": "Room 1.wav",
      "Path": "Plugins\\Wwise Convolution Reverb\\Room 1_04211D92.wem"
     },
     {
      "Id": "541288721",
      "Language": "SFX",
      "ShortName": "Room 2.wav",
      "Path": "Plugins\\Wwise Convolution Reverb\\Room 2_87FD2C49.wem"
     },
     {
      "Id": "541288722",
      "Language": "SFX",
      "ShortName": "Chamber 1.wav",
      "Path": "Plugins\\Wwise Convolution Reverb\\Chamber 1_44F99621.wem"
     }
    ],
    "GameParameters": [
     {
      "Id": "475975533",
      "Name": "RTPC_StereoWidth",
      "ObjectPath": "\\Game Parameters\\DS RTPC\\MIX RTPC\\Settings\\RTPC_StereoWidth",
      "GUID": "{A74F2774-1649-4D13-A0CD-9A73C9957DAC}"
     },
     {
      "Id": "579984592",
      "Name": "RTPC_Effects_Volume",
      "ObjectPath": "\\Game Parameters\\DS RTPC\\MIX RTPC\\Settings\\RTPC_Effects_Volume",
      "GUID": "{25D7CA5C-C521-432D-A946-B7EE262E494E}"
     },
     {
      "Id": "888992730",
      "Name": "RTPC_Prior_Meter_03_Fast",
      "ObjectPath": "\\Game Parameters\\DS RTPC\\MIX RTPC\\Meters\\RTPC_Prior_Meter_03_Fast",
      "GUID": "{4AB779BE-9D8D-4C89-8228-A868E1A5AF5A}"
     },
     {
      "Id": "1080068730",
      "Name": "RTPC_UI_Volume",
      "ObjectPath": "\\Game Parameters\\DS RTPC\\MIX RTPC\\Settings\\RTPC_UI_Volume",
      "GUID": "{311925D5-7A6B-44B9-A967-B519FF1EBBC2}"
     },
     {
      "Id": "1596647065",
      "Name": "RTPC_Music_Volume",
      "ObjectPath": "\\Game Parameters\\DS RTPC\\MIX RTPC\\Settings\\RTPC_Music_Volume",
      "GUID": "{829DA817-C50B-4E7F-8577-E3BAAF3A031D}"
     },
     {
      "Id": "1676809991",
      "Name": "RTPC_Ambiances_Volume",
      "ObjectPath": "\\Game Parameters\\DS RTPC\\MIX RTPC\\Settings\\RTPC_Ambiances_Volume",
      "GUID": "{9A5F6A37-00F1-4FFA-A606-F9B4119DCCD6}"
     },
     {
      "Id": "1998977308",
      "Name": "RTPC_Voice_Volume",
      "ObjectPath": "\\Game Parameters\\DS RTPC\\MIX RTPC\\Settings\\RTPC_Voice_Volume",
      "GUID": "{5A42D528-09FB-4948-886C-03D7940EDA29}"
     },
     {
      "Id": "2564988978",
      "Name": "RTPC_Master_Volume",
      "ObjectPath": "\\Game Parameters\\DS RTPC\\MIX RTPC\\Settings\\RTPC_Master_Volume",
      "GUID": "{FFA76535-10EC-4ECA-90C1-C0A3C1C12B25}"
     },
     {
      "Id": "2568571271",
      "Name": "RTPC_Prior_Meter_04_Fast",
      "ObjectPath": "\\Game Parameters\\DS RTPC\\MIX RTPC\\Meters\\RTPC_Prior_Meter_04_Fast",
      "GUID": "{763785C0-EEA9-4F36-8831-04E9C82596EF}"
     },
     {
      "Id": "2776054680",
      "Name": "RTPC_Foleys_Volume",
      "ObjectPath": "\\Game Parameters\\DS RTPC\\MIX RTPC\\Settings\\RTPC_Foleys_Volume",
      "GUID": "{51CA2CA9-EC58-4625-9BC3-D3DED47F263F}"
     },
     {
      "Id": "3202337757",
      "Name": "RTPC_DS_Volume",
      "ObjectPath": "\\Game Parameters\\DS RTPC\\MIX RTPC\\Settings\\RTPC_DS_Volume",
      "GUID": "{A5B6641B-0C15-43EA-B360-18DE82AD2AD2}"
     },
     {
      "Id": "3334746462",
      "Name": "RTPC_Prior_Meter_04_Slow",
      "ObjectPath": "\\Game Parameters\\DS RTPC\\MIX RTPC\\Meters\\RTPC_Prior_Meter_04_Slow",
      "GUID": "{AAAAED58-2E96-44EA-9374-EA493711740F}"
     },
     {
      "Id": "3364075793",
      "Name": "RTPC_Prior_Meter_05_Slow",
      "ObjectPath": "\\Game Parameters\\DS RTPC\\MIX RTPC\\Meters\\RTPC_Prior_Meter_05_Slow",
      "GUID": "{C0B2E778-CF6D-43C2-BD9A-FB52C423FF2A}"
     },
     {
      "Id": "3366444199",
      "Name": "RTPC_Prior_Meter_03_Slow",
      "ObjectPath": "\\Game Parameters\\DS RTPC\\MIX RTPC\\Meters\\RTPC_Prior_Meter_03_Slow",
      "GUID": "{F142390F-8125-42C7-89F1-5008AEE60B4D}"
     },
     {
      "Id": "3928341384",
      "Name": "RTPC_Prior_Meter_05_Fast",
      "ObjectPath": "\\Game Parameters\\DS RTPC\\MIX RTPC\\Meters\\RTPC_Prior_Meter_05_Fast",
      "GUID": "{114D6DF9-B05A-408F-BE68-63D20BF6DF67}"
     }
    ]
   }
  ]
 }
}