{
 "SoundBanksInfo": {
  "Platform": "Linux",
  "BasePlatform": "Linux",
  "SchemaVersion": "12",
  "SoundbankVersion": "135",
  "RootPaths": {
   "ProjectRoot": "D:\\Documents\\- ENJMIN\\- PROJETS\\H - Mini Projet\\Repo\\DeathStare\\DeathStare_WwiseProject\\",
   "SourceFilesRoot": "D:\\Documents\\- ENJMIN\\- PROJETS\\H - Mini Projet\\Repo\\DeathStare\\DeathStare_WwiseProject\\.cache\\Linux\\",
   "SoundBanksRoot": "D:\\Documents\\- ENJMIN\\- PROJETS\\H - Mini Projet\\Repo\\DeathStare\\Assets\\StreamingAssets\\Audio\\GeneratedSoundBanks\\Linux\\English(US)\\",
   "ExternalSourcesInputFile": "",
   "ExternalSourcesOutputRoot": "D:\\Documents\\- ENJMIN\\- PROJETS\\H - Mini Projet\\Repo\\DeathStare\\DeathStare_WwiseProject\\GeneratedSoundBanks\\Linux"
  },
  "SoundBanks": [
   {
    "Id": "959317692",
    "GUID": "{48DF52CE-1F69-4E0F-B59C-E90DAD411B75}",
    "Language": "English(US)",
    "ObjectPath": "\\SoundBanks\\DS SNB\\SFX SNB\\EFFECTS\\EFFECTS FIGHT\\EFFECTS_FIGHT_SNB",
    "ShortName": "EFFECTS_FIGHT_SNB",
    "Path": "English(US)\\EFFECTS_FIGHT_SNB.bnk",
    "IncludedEvents": [
     {
      "Id": "2897623584",
      "Name": "EFFECTS_Char_Damage",
      "ObjectPath": "\\Events\\DS EVENTS\\SFX EVENTS\\EFFECTS EVENTS\\Characters\\EFFECTS_Char_Damage",
      "GUID": "{39AF3851-8A48-48B4-A481-7F4083946766}",
      "DurationType": "OneShot",
      "DurationMin": "1.791042",
      "DurationMax": "1.791042",
      "IncludedMemoryFiles": [
       {
        "Id": "35799518",
        "Language": "English(US)",
        "ShortName": "Characters\\Marta\\Barks\\VO_Marta_Barks_Damage_000.wav",
        "Path": "Voices\\English(US)\\Characters\\Marta\\Barks\\VO_Marta_Barks_Damage_000_755F56E2.wem"
       },
       {
        "Id": "37903035",
        "Language": "SFX",
        "ShortName": "Effects\\Characters\\Character 1\\Damage\\Char_Damage_Tick_J1_Layer 7.wav",
        "Path": "SFX\\Effects\\Characters\\Character 1\\Damage\\Char_Damage_Tick_J1_Layer 7_755F56E2.wem"
       },
       {
        "Id": "50300617",
        "Language": "SFX",
        "ShortName": "Effects\\Characters\\Character 1\\Damage\\Char_Damage_Tick_J1_Layer 3.wav",
        "Path": "SFX\\Effects\\Characters\\Character 1\\Damage\\Char_Damage_Tick_J1_Layer 3_755F56E2.wem"
       },
       {
        "Id": "52252593",
        "Language": "SFX",
        "ShortName": "Effects\\Characters\\Character 3\\Damage\\Char_Damage_Tick_J3_Layer 4.wav",
        "Path": "SFX\\Effects\\Characters\\Character 3\\Damage\\Char_Damage_Tick_J3_Layer 4_755F56E2.wem"
       },
       {
        "Id": "115094949",
        "Language": "SFX",
        "ShortName": "Effects\\Characters\\Character 2\\Damage\\Char_Damage_Tick_J2_Layer 6.wav",
        "Path": "SFX\\Effects\\Characters\\Character 2\\Damage\\Char_Damage_Tick_J2_Layer 6_755F56E2.wem"
       },
       {
        "Id": "136612727",
        "Language": "SFX",
        "ShortName": "Effects\\Characters\\Character 3\\Damage\\Char_Damage_Tick_J3_Layer 1.wav",
        "Path": "SFX\\Effects\\Characters\\Character 3\\Damage\\Char_Damage_Tick_J3_Layer 1_755F56E2.wem"
       },
       {
        "Id": "137726378",
        "Language": "English(US)",
        "ShortName": "Characters\\Don\\Barks\\VO_Don_Barks_Damage_012.wav",
        "Path": "Voices\\English(US)\\Characters\\Don\\Barks\\VO_Don_Barks_Damage_012_755F56E2.wem"
       },
       {
        "Id": "208562825",
        "Language": "English(US)",
        "ShortName": "Characters\\Don\\Barks\\VO_Don_Barks_Damage_011.wav",
        "Path": "Voices\\English(US)\\Characters\\Don\\Barks\\VO_Don_Barks_Damage_011_755F56E2.wem"
       },
       {
        "Id": "210993120",
        "Language": "English(US)",
        "ShortName": "Characters\\Marta\\Barks\\VO_Marta_Barks_Damage_004.wav",
        "Path": "Voices\\English(US)\\Characters\\Marta\\Barks\\VO_Marta_Barks_Damage_004_755F56E2.wem"
       },
       {
        "Id": "221431754",
        "Language": "SFX",
        "ShortName": "Effects\\Characters\\Character 3\\Damage\\Char_Damage_Tick_J3_Layer 5.wav",
        "Path": "SFX\\Effects\\Characters\\Character 3\\Damage\\Char_Damage_Tick_J3_Layer 5_755F56E2.wem"
       },
       {
        "Id": "229686007",
        "Language": "SFX",
        "ShortName": "Effects\\Characters\\Character 3\\Damage\\Char_Damage_Tick_J3_Layer 7.wav",
        "Path": "SFX\\Effects\\Characters\\Character 3\\Damage\\Char_Damage_Tick_J3_Layer 7_755F56E2.wem"
       },
       {
        "Id": "239189544",
        "Language": "SFX",
        "ShortName": "Effects\\Characters\\Character 4\\Damage\\Char_Damage_Tick_J4_Layer 1.wav",
        "Path": "SFX\\Effects\\Characters\\Character 4\\Damage\\Char_Damage_Tick_J4_Layer 1_755F56E2.wem"
       },
       {
        "Id": "291822605",
        "Language": "English(US)",
        "ShortName": "Characters\\Stan\\VO_Stan_Barks_Damage_005.wav",
        "Path": "Voices\\English(US)\\Characters\\Stan\\VO_Stan_Barks_Damage_005_755F56E2.wem"
       },
       {
        "Id": "305601223",
        "Language": "SFX",
        "ShortName": "Effects\\Characters\\Character 4\\Damage\\Char_Damage_Tick_J4_Layer 3.wav",
        "Path": "SFX\\Effects\\Characters\\Character 4\\Damage\\Char_Damage_Tick_J4_Layer 3_755F56E2.wem"
       },
       {
        "Id": "322146938",
        "Language": "English(US)",
        "ShortName": "Characters\\Medusa\\Barks\\VO_Medusa_Barks_Damage_001.wav",
        "Path": "Voices\\English(US)\\Characters\\Medusa\\Barks\\VO_Medusa_Barks_Damage_001_755F56E2.wem"
       },
       {
        "Id": "333200455",
        "Language": "English(US)",
        "ShortName": "Characters\\Stan\\VO_Stan_Barks_Damage_000.wav",
        "Path": "Voices\\English(US)\\Characters\\Stan\\VO_Stan_Barks_Damage_000_755F56E2.wem"
       },
       {
        "Id": "343288079",
        "Language": "SFX",
        "ShortName": "Effects\\Characters\\Character 4\\Damage\\Char_Damage_Tick_J4_Layer 4.wav",
        "Path": "SFX\\Effects\\Characters\\Character 4\\Damage\\Char_Damage_Tick_J4_Layer 4_755F56E2.wem"
       },
       {
        "Id": "347666453",
        "Language": "English(US)",
        "ShortName": "Characters\\Marta\\Barks\\VO_Marta_Barks_Damage_001.wav",
        "Path": "Voices\\English(US)\\Characters\\Marta\\Barks\\VO_Marta_Barks_Damage_001_755F56E2.wem"
       },
       {
        "Id": "356291622",
        "Language": "English(US)",
        "ShortName": "Characters\\Don\\Barks\\VO_Don_Barks_Damage_006.wav",
        "Path": "Voices\\English(US)\\Characters\\Don\\Barks\\VO_Don_Barks_Damage_006_755F56E2.wem"
       },
       {
        "Id": "359873173",
        "Language": "English(US)",
        "ShortName": "Characters\\Don\\Barks\\VO_Don_Barks_Damage_000.wav",
        "Path": "Voices\\English(US)\\Characters\\Don\\Barks\\VO_Don_Barks_Damage_000_755F56E2.wem"
       },
       {
        "Id": "401440944",
        "Language": "English(US)",
        "ShortName": "Characters\\Medusa\\Barks\\VO_Medusa_Barks_Damage_002.wav",
        "Path": "Voices\\English(US)\\Characters\\Medusa\\Barks\\VO_Medusa_Barks_Damage_002_755F56E2.wem"
       },
       {
        "Id": "407594243",
        "Language": "SFX",
        "ShortName": "Effects\\Characters\\Character 4\\Damage\\Char_Damage_Tick_J4_Layer 8.wav",
        "Path": "SFX\\Effects\\Characters\\Character 4\\Damage\\Char_Damage_Tick_J4_Layer 8_755F56E2.wem"
       },
       {
        "Id": "411601846",
        "Language": "SFX",
        "ShortName": "Effects\\Characters\\Character 4\\Damage\\Char_Damage_Tick_J4_Layer 6.wav",
        "Path": "SFX\\Effects\\Characters\\Character 4\\Damage\\Char_Damage_Tick_J4_Layer 6_755F56E2.wem"
       },
       {
        "Id": "413629678",
        "Language": "SFX",
        "ShortName": "Effects\\Characters\\Character 1\\Damage\\Char_Damage_Tick_J1_Layer 6.wav",
        "Path": "SFX\\Effects\\Characters\\Character 1\\Damage\\Char_Damage_Tick_J1_Layer 6_755F56E2.wem"
       },
       {
        "Id": "422543192",
        "Language": "English(US)",
        "ShortName": "Characters\\Don\\Barks\\VO_Don_Barks_Damage_001.wav",
        "Path": "Voices\\English(US)\\Characters\\Don\\Barks\\VO_Don_Barks_Damage_001_755F56E2.wem"
       },
       {
        "Id": "422902470",
        "Language": "SFX",
        "ShortName": "Effects\\Characters\\Character 1\\Damage\\Char_Damage_Tick_J1_Layer 8.wav",
        "Path": "SFX\\Effects\\Characters\\Character 1\\Damage\\Char_Damage_Tick_J1_Layer 8_755F56E2.wem"
       },
       {
        "Id": "440106425",
        "Language": "English(US)",
        "ShortName": "Characters\\Medusa\\Barks\\VO_Medusa_Barks_Damage_005.wav",
        "Path": "Voices\\English(US)\\Characters\\Medusa\\Barks\\VO_Medusa_Barks_Damage_005_755F56E2.wem"
       },
       {
        "Id": "458638046",
        "Language": "SFX",
        "ShortName": "Effects\\Characters\\Character 4\\Damage\\Char_Damage_Tick_J4_Layer 2.wav",
        "Path": "SFX\\Effects\\Characters\\Character 4\\Damage\\Char_Damage_Tick_J4_Layer 2_755F56E2.wem"
       },
       {
        "Id": "459996355",
        "Language": "SFX",
        "ShortName": "Effects\\Characters\\Character 2\\Damage\\Char_Damage_Tick_J2_Layer 1.wav",
        "Path": "SFX\\Effects\\Characters\\Character 2\\Damage\\Char_Damage_Tick_J2_Layer 1_755F56E2.wem"
       },
       {
        "Id": "467860440",
        "Language": "English(US)",
        "ShortName": "Characters\\Stan\\VO_Stan_Barks_Damage_006.wav",
        "Path": "Voices\\English(US)\\Characters\\Stan\\VO_Stan_Barks_Damage_006_755F56E2.wem"
       },
       {
        "Id": "471581320",
        "Language": "English(US)",
        "ShortName": "Characters\\Stan\\VO_Stan_Barks_Damage_002.wav",
        "Path": "Voices\\English(US)\\Characters\\Stan\\VO_Stan_Barks_Damage_002_755F56E2.wem"
       },
       {
        "Id": "473152394",
        "Language": "SFX",
        "ShortName": "Effects\\Characters\\Character 1\\Damage\\Char_Damage_Tick_J1_Layer 1.wav",
        "Path": "SFX\\Effects\\Characters\\Character 1\\Damage\\Char_Damage_Tick_J1_Layer 1_755F56E2.wem"
       },
       {
        "Id": "482855766",
        "Language": "English(US)",
        "ShortName": "Characters\\Don\\Barks\\VO_Don_Barks_Damage_002.wav",
        "Path": "Voices\\English(US)\\Characters\\Don\\Barks\\VO_Don_Barks_Damage_002_755F56E2.wem"
       },
       {
        "Id": "499890546",
        "Language": "English(US)",
        "ShortName": "Characters\\Marta\\Barks\\VO_Marta_Barks_Damage_002.wav",
        "Path": "Voices\\English(US)\\Characters\\Marta\\Barks\\VO_Marta_Barks_Damage_002_755F56E2.wem"
       },
       {
        "Id": "513488464",
        "Language": "English(US)",
        "ShortName": "Characters\\Stan\\VO_Stan_Barks_Damage_001.wav",
        "Path": "Voices\\English(US)\\Characters\\Stan\\VO_Stan_Barks_Damage_001_755F56E2.wem"
       },
       {
        "Id": "531802757",
        "Language": "SFX",
        "ShortName": "Effects\\Characters\\Character 2\\Damage\\Char_Damage_Tick_J2_Layer 3.wav",
        "Path": "SFX\\Effects\\Characters\\Character 2\\Damage\\Char_Damage_Tick_J2_Layer 3_755F56E2.wem"
       },
       {
        "Id": "546259592",
        "Language": "English(US)",
        "ShortName": "Characters\\Medusa\\Barks\\VO_Medusa_Barks_Damage_000.wav",
        "Path": "Voices\\English(US)\\Characters\\Medusa\\Barks\\VO_Medusa_Barks_Damage_000_755F56E2.wem"
       },
       {
        "Id": "559820945",
        "Language": "SFX",
        "ShortName": "Effects\\Characters\\Character 4\\Damage\\Char_Damage_Tick_J4_Layer 7.wav",
        "Path": "SFX\\Effects\\Characters\\Character 4\\Damage\\Char_Damage_Tick_J4_Layer 7_755F56E2.wem"
       },
       {
        "Id": "613797314",
        "Language": "English(US)",
        "ShortName": "Characters\\Stan\\VO_Stan_Barks_Damage_007.wav",
        "Path": "Voices\\English(US)\\Characters\\Stan\\VO_Stan_Barks_Damage_007_755F56E2.wem"
       },
       {
        "Id": "622850574",
        "Language": "English(US)",
        "ShortName": "Characters\\Medusa\\Barks\\VO_Medusa_Barks_Damage_004.wav",
        "Path": "Voices\\English(US)\\Characters\\Medusa\\Barks\\VO_Medusa_Barks_Damage_004_755F56E2.wem"
       },
       {
        "Id": "696310082",
        "Language": "SFX",
        "ShortName": "Effects\\Characters\\Character 3\\Damage\\Char_Damage_Tick_J3_Layer 8.wav",
        "Path": "SFX\\Effects\\Characters\\Character 3\\Damage\\Char_Damage_Tick_J3_Layer 8_755F56E2.wem"
       },
       {
        "Id": "701040613",
        "Language": "English(US)",
        "ShortName": "Characters\\Don\\Barks\\VO_Don_Barks_Damage_008.wav",
        "Path": "Voices\\English(US)\\Characters\\Don\\Barks\\VO_Don_Barks_Damage_008_755F56E2.wem"
       },
       {
        "Id": "714036756",
        "Language": "English(US)",
        "ShortName": "Characters\\Don\\Barks\\VO_Don_Barks_Damage_003.wav",
        "Path": "Voices\\English(US)\\Characters\\Don\\Barks\\VO_Don_Barks_Damage_003_755F56E2.wem"
       },
       {
        "Id": "733944457",
        "Language": "English(US)",
        "ShortName": "Characters\\Don\\Barks\\VO_Don_Barks_Damage_005.wav",
        "Path": "Voices\\English(US)\\Characters\\Don\\Barks\\VO_Don_Barks_Damage_005_755F56E2.wem"
       },
       {
        "Id": "775744612",
        "Language": "SFX",
        "ShortName": "Effects\\Characters\\Character 2\\Damage\\Char_Damage_Tick_J2_Layer 2.wav",
        "Path": "SFX\\Effects\\Characters\\Character 2\\Damage\\Char_Damage_Tick_J2_Layer 2_755F56E2.wem"
       },
       {
        "Id": "777248367",
        "Language": "English(US)",
        "ShortName": "Characters\\Stan\\VO_Stan_Barks_Damage_003.wav",
        "Path": "Voices\\English(US)\\Characters\\Stan\\VO_Stan_Barks_Damage_003_755F56E2.wem"
       },
       {
        "Id": "797109373",
        "Language": "English(US)",
        "ShortName": "Characters\\Stan\\VO_Stan_Barks_Damage_008.wav",
        "Path": "Voices\\English(US)\\Characters\\Stan\\VO_Stan_Barks_Damage_008_755F56E2.wem"
       },
       {
        "Id": "864247334",
        "Language": "English(US)",
        "ShortName": "Characters\\Stan\\VO_Stan_Barks_Damage_004.wav",
        "Path": "Voices\\English(US)\\Characters\\Stan\\VO_Stan_Barks_Damage_004_755F56E2.wem"
       },
       {
        "Id": "874765828",
        "Language": "SFX",
        "ShortName": "Effects\\Characters\\Character 3\\Damage\\Char_Damage_Tick_J3_Layer 6.wav",
        "Path": "SFX\\Effects\\Characters\\Character 3\\Damage\\Char_Damage_Tick_J3_Layer 6_755F56E2.wem"
       },
       {
        "Id": "876761262",
        "Language": "SFX",
        "ShortName": "Effects\\Characters\\Character 2\\Damage\\Char_Damage_Tick_J2_Layer 7.wav",
        "Path": "SFX\\Effects\\Characters\\Character 2\\Damage\\Char_Damage_Tick_J2_Layer 7_755F56E2.wem"
       },
       {
        "Id": "924968031",
        "Language": "English(US)",
        "ShortName": "Characters\\Don\\Barks\\VO_Don_Barks_Damage_004.wav",
        "Path": "Voices\\English(US)\\Characters\\Don\\Barks\\VO_Don_Barks_Damage_004_755F56E2.wem"
       },
       {
        "Id": "926159674",
        "Language": "SFX",
        "ShortName": "Effects\\Characters\\Character 3\\Damage\\Char_Damage_Tick_J3_Layer 3.wav",
        "Path": "SFX\\Effects\\Characters\\Character 3\\Damage\\Char_Damage_Tick_J3_Layer 3_755F56E2.wem"
       },
       {
        "Id": "930831181",
        "Language": "SFX",
        "ShortName": "Effects\\Characters\\Character 4\\Damage\\Char_Damage_Tick_J4_Layer 5.wav",
        "Path": "SFX\\Effects\\Characters\\Character 4\\Damage\\Char_Damage_Tick_J4_Layer 5_755F56E2.wem"
       },
       {
        "Id": "937460909",
        "Language": "SFX",
        "ShortName": "Effects\\Characters\\Character 1\\Damage\\Char_Damage_Tick_J1_Layer 5.wav",
        "Path": "SFX\\Effects\\Characters\\Character 1\\Damage\\Char_Damage_Tick_J1_Layer 5_755F56E2.wem"
       },
       {
        "Id": "965540586",
        "Language": "SFX",
        "ShortName": "Effects\\Characters\\Character 2\\Damage\\Char_Damage_Tick_J2_Layer 4.wav",
        "Path": "SFX\\Effects\\Characters\\Character 2\\Damage\\Char_Damage_Tick_J2_Layer 4_755F56E2.wem"
       },
       {
        "Id": "978211089",
        "Language": "English(US)",
        "ShortName": "Characters\\Don\\Barks\\VO_Don_Barks_Damage_007.wav",
        "Path": "Voices\\English(US)\\Characters\\Don\\Barks\\VO_Don_Barks_Damage_007_755F56E2.wem"
       },
       {
        "Id": "978218870",
        "Language": "SFX",
        "ShortName": "Effects\\Characters\\Character 3\\Damage\\Char_Damage_Tick_J3_Layer 2.wav",
        "Path": "SFX\\Effects\\Characters\\Character 3\\Damage\\Char_Damage_Tick_J3_Layer 2_755F56E2.wem"
       },
       {
        "Id": "990252664",
        "Language": "English(US)",
        "ShortName": "Characters\\Medusa\\Barks\\VO_Medusa_Barks_Damage_003.wav",
        "Path": "Voices\\English(US)\\Characters\\Medusa\\Barks\\VO_Medusa_Barks_Damage_003_755F56E2.wem"
       },
       {
        "Id": "999317491",
        "Language": "SFX",
        "ShortName": "Effects\\Characters\\Character 1\\Damage\\Char_Damage_Tick_J1_Layer 4.wav",
        "Path": "SFX\\Effects\\Characters\\Character 1\\Damage\\Char_Damage_Tick_J1_Layer 4_755F56E2.wem"
       },
       {
        "Id": "1011138371",
        "Language": "English(US)",
        "ShortName": "Characters\\Don\\Barks\\VO_Don_Barks_Damage_010.wav",
        "Path": "Voices\\English(US)\\Characters\\Don\\Barks\\VO_Don_Barks_Damage_010_755F56E2.wem"
       },
       {
        "Id": "1020731183",
        "Language": "SFX",
        "ShortName": "Effects\\Characters\\Character 1\\Damage\\Char_Damage_Tick_J1_Layer 2.wav",
        "Path": "SFX\\Effects\\Characters\\Character 1\\Damage\\Char_Damage_Tick_J1_Layer 2_755F56E2.wem"
       },
       {
        "Id": "1044057163",
        "Language": "SFX",
        "ShortName": "Effects\\Characters\\Character 2\\Damage\\Char_Damage_Tick_J2_Layer 8.wav",
        "Path": "SFX\\Effects\\Characters\\Character 2\\Damage\\Char_Damage_Tick_J2_Layer 8_755F56E2.wem"
       },
       {
        "Id": "1051051330",
        "Language": "English(US)",
        "ShortName": "Characters\\Marta\\Barks\\VO_Marta_Barks_Damage_003.wav",
        "Path": "Voices\\English(US)\\Characters\\Marta\\Barks\\VO_Marta_Barks_Damage_003_755F56E2.wem"
       },
       {
        "Id": "1055431933",
        "Language": "SFX",
        "ShortName": "Effects\\Characters\\Character 2\\Damage\\Char_Damage_Tick_J2_Layer 5.wav",
        "Path": "SFX\\Effects\\Characters\\Character 2\\Damage\\Char_Damage_Tick_J2_Layer 5_755F56E2.wem"
       }
      ],
      "SwitchContainers": [
       {
        "SwitchValue": "{D760C32B-548A-4771-BD4D-62228DF42DDA}",
        "Media": [
         {
          "Id": "473152394"
         },
         {
          "Id": "1020731183"
         },
         {
          "Id": "50300617"
         },
         {
          "Id": "999317491"
         },
         {
          "Id": "937460909"
         },
         {
          "Id": "413629678"
         },
         {
          "Id": "37903035"
         },
         {
          "Id": "422902470"
         }
        ]
       },
       {
        "SwitchValue": "{35768ADC-1EE7-41CB-B85A-C0E760171E75}",
        "Media": [
         {
          "Id": "459996355"
         },
         {
          "Id": "775744612"
         },
         {
          "Id": "531802757"
         },
         {
          "Id": "965540586"
         },
         {
          "Id": "1055431933"
         },
         {
          "Id": "115094949"
         },
         {
          "Id": "876761262"
         },
         {
          "Id": "1044057163"
         }
        ]
       },
       {
        "SwitchValue": "{D13B0DC0-2563-4CEB-A2D8-ACF26144B33B}",
        "Media": [
         {
          "Id": "136612727"
         },
         {
          "Id": "978218870"
         },
         {
          "Id": "926159674"
         },
         {
          "Id": "52252593"
         },
         {
          "Id": "221431754"
         },
         {
          "Id": "874765828"
         },
         {
          "Id": "229686007"
         },
         {
          "Id": "696310082"
         }
        ]
       },
       {
        "SwitchValue": "{3C7A335C-04AB-4308-B86B-8D5A611458BD}",
        "Media": [
         {
          "Id": "239189544"
         },
         {
          "Id": "458638046"
         },
         {
          "Id": "305601223"
         },
         {
          "Id": "343288079"
         },
         {
          "Id": "930831181"
         },
         {
          "Id": "411601846"
         },
         {
          "Id": "559820945"
         },
         {
          "Id": "407594243"
         }
        ]
       },
       {
        "SwitchValue": "{4C382281-7FAC-4DD1-B692-B02E92399DA5}",
        "Media": [
         {
          "Id": "333200455"
         },
         {
          "Id": "513488464"
         },
         {
          "Id": "471581320"
         },
         {
          "Id": "777248367"
         },
         {
          "Id": "864247334"
         },
         {
          "Id": "291822605"
         },
         {
          "Id": "467860440"
         },
         {
          "Id": "613797314"
         },
         {
          "Id": "797109373"
         }
        ]
       },
       {
        "SwitchValue": "{7D4746AA-C04B-4E16-83FD-C95E7EF7E539}",
        "Media": [
         {
          "Id": "35799518"
         },
         {
          "Id": "347666453"
         },
         {
          "Id": "499890546"
         },
         {
          "Id": "1051051330"
         },
         {
          "Id": "210993120"
         }
        ]
       },
       {
        "SwitchValue": "{D598D9B9-8A2F-4A38-BA2F-BF955F036EFA}",
        "Media": [
         {
          "Id": "546259592"
         },
         {
          "Id": "322146938"
         },
         {
          "Id": "401440944"
         },
         {
          "Id": "990252664"
         },
         {
          "Id": "622850574"
         },
         {
          "Id": "440106425"
         }
        ]
       },
       {
        "SwitchValue": "{32631DF3-1804-4308-8ADB-CBAD960F3706}",
        "Media": [
         {
          "Id": "359873173"
         },
         {
          "Id": "422543192"
         },
         {
          "Id": "482855766"
         },
         {
          "Id": "714036756"
         },
         {
          "Id": "924968031"
         },
         {
          "Id": "733944457"
         },
         {
          "Id": "356291622"
         },
         {
          "Id": "978211089"
         },
         {
          "Id": "701040613"
         },
         {
          "Id": "1011138371"
         },
         {
          "Id": "208562825"
         },
         {
          "Id": "137726378"
         }
        ]
       }
      ]
     },
     {
      "Id": "1940990649",
      "Name": "EFFECTS_Char_Duel",
      "ObjectPath": "\\Events\\DS EVENTS\\SFX EVENTS\\EFFECTS EVENTS\\Characters\\EFFECTS_Char_Duel",
      "GUID": "{1251C39E-B1EE-4B10-BF0F-5025FBEDCF46}",
      "DurationType": "Infinite",
      "IncludedMemoryFiles": [
       {
        "Id": "576184738",
        "Language": "SFX",
        "ShortName": "Effects\\Characters\\Character 1\\DeathStare\\Duel\\Character_DeathStare_Duel.wav",
        "Path": "SFX\\Effects\\Characters\\Character 1\\DeathStare\\Duel\\Character_DeathStare_Duel_708A5178.wem"
       }
      ]
     },
     {
      "Id": "916024413",
      "Name": "EFFECTS_Char_EnterStaring",
      "ObjectPath": "\\Events\\DS EVENTS\\SFX EVENTS\\EFFECTS EVENTS\\Characters\\EFFECTS_Char_EnterStaring",
      "GUID": "{5E094CD5-6215-40A9-8840-C5EB9C6BB247}",
      "DurationType": "OneShot",
      "DurationMin": "1.586594",
      "DurationMax": "2.069477",
      "IncludedMemoryFiles": [
       {
        "Id": "22470041",
        "Language": "SFX",
        "ShortName": "Effects\\Characters\\EnterStaring\\Char_DS_EnterStaring_Stan.wav",
        "Path": "SFX\\Effects\\Characters\\EnterStaring\\Char_DS_EnterStaring_Stan_755F56E2.wem"
       },
       {
        "Id": "379724358",
        "Language": "SFX",
        "ShortName": "Effects\\Characters\\EnterStaring\\Char_DS_EnterStaring_Don.wav",
        "Path": "SFX\\Effects\\Characters\\EnterStaring\\Char_DS_EnterStaring_Don_755F56E2.wem"
       },
       {
        "Id": "489419873",
        "Language": "SFX",
        "ShortName": "Effects\\Characters\\EnterStaring\\Char_DS_EnterStaring_Medusa.wav",
        "Path": "SFX\\Effects\\Characters\\EnterStaring\\Char_DS_EnterStaring_Medusa_755F56E2.wem"
       },
       {
        "Id": "904103803",
        "Language": "SFX",
        "ShortName": "Effects\\Characters\\EnterStaring\\Char_DS_EnterStaring_Marta.wav",
        "Path": "SFX\\Effects\\Characters\\EnterStaring\\Char_DS_EnterStaring_Marta_755F56E2.wem"
       }
      ],
      "SwitchContainers": [
       {
        "SwitchValue": "{32631DF3-1804-4308-8ADB-CBAD960F3706}",
        "Media": [
         {
          "Id": "379724358"
         }
        ]
       },
       {
        "SwitchValue": "{7D4746AA-C04B-4E16-83FD-C95E7EF7E539}",
        "Media": [
         {
          "Id": "904103803"
         }
        ]
       },
       {
        "SwitchValue": "{D598D9B9-8A2F-4A38-BA2F-BF955F036EFA}",
        "Media": [
         {
          "Id": "489419873"
         }
        ]
       },
       {
        "SwitchValue": "{4C382281-7FAC-4DD1-B692-B02E92399DA5}",
        "Media": [
         {
          "Id": "22470041"
         }
        ]
       }
      ]
     },
     {
      "Id": "3646545493",
      "Name": "EFFECTS_Char_ExitStaring",
      "ObjectPath": "\\Events\\DS EVENTS\\SFX EVENTS\\EFFECTS EVENTS\\Characters\\EFFECTS_Char_ExitStaring",
      "GUID": "{029044F0-1CAA-463F-85AD-5D98A8DC0FE6}",
      "DurationType": "OneShot",
      "DurationMin": "1.054521",
      "DurationMax": "1.125583",
      "IncludedMemoryFiles": [
       {
        "Id": "276096878",
        "Language": "SFX",
        "ShortName": "Effects\\Characters\\ExitStaring\\Char_DS_ExitStaring_Marta.wav",
        "Path": "SFX\\Effects\\Characters\\ExitStaring\\Char_DS_ExitStaring_Marta_755F56E2.wem"
       },
       {
        "Id": "363451738",
        "Language": "SFX",
        "ShortName": "Effects\\Characters\\ExitStaring\\Char_DS_ExitStaring_Don.wav",
        "Path": "SFX\\Effects\\Characters\\ExitStaring\\Char_DS_ExitStaring_Don_755F56E2.wem"
       },
       {
        "Id": "720148857",
        "Language": "SFX",
        "ShortName": "Effects\\Characters\\ExitStaring\\Char_DS_ExitStaring_Medusa.wav",
        "Path": "SFX\\Effects\\Characters\\ExitStaring\\Char_DS_ExitStaring_Medusa_755F56E2.wem"
       },
       {
        "Id": "744695877",
        "Language": "SFX",
        "ShortName": "Effects\\Characters\\ExitStaring\\Char_DS_ExitStaring_Stan.wav",
        "Path": "SFX\\Effects\\Characters\\ExitStaring\\Char_DS_ExitStaring_Stan_755F56E2.wem"
       }
      ],
      "SwitchContainers": [
       {
        "SwitchValue": "{4C382281-7FAC-4DD1-B692-B02E92399DA5}",
        "Media": [
         {
          "Id": "363451738"
         }
        ]
       },
       {
        "SwitchValue": "{7D4746AA-C04B-4E16-83FD-C95E7EF7E539}",
        "Media": [
         {
          "Id": "276096878"
         }
        ]
       },
       {
        "SwitchValue": "{D598D9B9-8A2F-4A38-BA2F-BF955F036EFA}",
        "Media": [
         {
          "Id": "720148857"
         }
        ]
       },
       {
        "SwitchValue": "{32631DF3-1804-4308-8ADB-CBAD960F3706}",
        "Media": [
         {
          "Id": "744695877"
         }
        ]
       }
      ]
     },
     {
      "Id": "3848322560",
      "Name": "EFFECTS_Char_HitMarker",
      "ObjectPath": "\\Events\\DS EVENTS\\SFX EVENTS\\EFFECTS EVENTS\\Characters\\EFFECTS_Char_HitMarker",
      "GUID": "{330B830A-9EF7-458C-9281-B8FDBDF48BC7}",
      "DurationType": "OneShot",
      "DurationMin": "0.180906",
      "DurationMax": "0.194388",
      "IncludedMemoryFiles": [
       {
        "Id": "115759651",
        "Language": "SFX",
        "ShortName": "Effects\\Characters\\Visible\\Char_Visible_Medusa.wav",
        "Path": "SFX\\Effects\\Characters\\Visible\\Char_Visible_Medusa_B679FAFF.wem"
       },
       {
        "Id": "149238433",
        "Language": "SFX",
        "ShortName": "Effects\\Characters\\Visible\\Char_Visible_Marta.wav",
        "Path": "SFX\\Effects\\Characters\\Visible\\Char_Visible_Marta_3F741510.wem"
       },
       {
        "Id": "351065686",
        "Language": "SFX",
        "ShortName": "Effects\\Characters\\Visible\\Char_Visible_Don.wav",
        "Path": "SFX\\Effects\\Characters\\Visible\\Char_Visible_Don_B6533485.wem"
       },
       {
        "Id": "688681146",
        "Language": "SFX",
        "ShortName": "Effects\\Characters\\Visible\\Char_Visible_Stan.wav",
        "Path": "SFX\\Effects\\Characters\\Visible\\Char_Visible_Stan_9498DBB4.wem"
       }
      ],
      "SwitchContainers": [
       {
        "SwitchValue": "{32631DF3-1804-4308-8ADB-CBAD960F3706}",
        "Media": [
         {
          "Id": "351065686"
         }
        ]
       },
       {
        "SwitchValue": "{7D4746AA-C04B-4E16-83FD-C95E7EF7E539}",
        "Media": [
         {
          "Id": "149238433"
         }
        ]
       },
       {
        "SwitchValue": "{D598D9B9-8A2F-4A38-BA2F-BF955F036EFA}",
        "Media": [
         {
          "Id": "115759651"
         }
        ]
       },
       {
        "SwitchValue": "{4C382281-7FAC-4DD1-B692-B02E92399DA5}",
        "Media": [
         {
          "Id": "688681146"
         }
        ]
       }
      ]
     },
     {
      "Id": "1330443465",
      "Name": "EFFECTS_Char_MedicKit",
      "ObjectPath": "\\Events\\DS EVENTS\\SFX EVENTS\\EFFECTS EVENTS\\Characters\\EFFECTS_Char_MedicKit",
      "GUID": "{F0A759E0-301E-4541-BFA2-05DF0905ECCC}",
      "DurationType": "OneShot",
      "DurationMin": "0.884354",
      "DurationMax": "1.195500",
      "IncludedMemoryFiles": [
       {
        "Id": "52309673",
        "Language": "SFX",
        "ShortName": "Effects\\MedicKit\\Char_MedicKit_004.wav",
        "Path": "SFX\\Effects\\MedicKit\\Char_MedicKit_004_755F56E2.wem"
       },
       {
        "Id": "521328354",
        "Language": "SFX",
        "ShortName": "Effects\\MedicKit\\Char_MedicKit_003.wav",
        "Path": "SFX\\Effects\\MedicKit\\Char_MedicKit_003_755F56E2.wem"
       },
       {
        "Id": "759072052",
        "Language": "SFX",
        "ShortName": "Effects\\MedicKit\\Char_MedicKit_002.wav",
        "Path": "SFX\\Effects\\MedicKit\\Char_MedicKit_002_755F56E2.wem"
       },
       {
        "Id": "956147360",
        "Language": "SFX",
        "ShortName": "Effects\\MedicKit\\Char_MedicKit_000.wav",
        "Path": "SFX\\Effects\\MedicKit\\Char_MedicKit_000_755F56E2.wem"
       },
       {
        "Id": "962010834",
        "Language": "SFX",
        "ShortName": "Effects\\MedicKit\\Char_MedicKit_001.wav",
        "Path": "SFX\\Effects\\MedicKit\\Char_MedicKit_001_755F56E2.wem"
       }
      ]
     },
     {
      "Id": "2487704977",
      "Name": "EFFECTS_Char_OutOfStamina",
      "ObjectPath": "\\Events\\DS EVENTS\\SFX EVENTS\\EFFECTS EVENTS\\Characters\\EFFECTS_Char_OutOfStamina",
      "GUID": "{0C0A9525-AA28-4AA5-853C-C7E02AE50F91}",
      "DurationType": "OneShot",
      "DurationMin": "1.983292",
      "DurationMax": "2.749958",
      "IncludedMemoryFiles": [
       {
        "Id": "342385536",
        "Language": "SFX",
        "ShortName": "Effects\\Characters\\OutOfStamina\\Char_DS_OutOfStamina_Medusa.wav",
        "Path": "SFX\\Effects\\Characters\\OutOfStamina\\Char_DS_OutOfStamina_Medusa_755F56E2.wem"
       },
       {
        "Id": "449576993",
        "Language": "SFX",
        "ShortName": "Effects\\Characters\\OutOfStamina\\Char_DS_OutOfStamina_Marta.wav",
        "Path": "SFX\\Effects\\Characters\\OutOfStamina\\Char_DS_OutOfStamina_Marta_755F56E2.wem"
       },
       {
        "Id": "603999956",
        "Language": "SFX",
        "ShortName": "Effects\\Characters\\OutOfStamina\\Char_DS_OutOfStamina_Stan.wav",
        "Path": "SFX\\Effects\\Characters\\OutOfStamina\\Char_DS_OutOfStamina_Stan_755F56E2.wem"
       },
       {
        "Id": "741923635",
        "Language": "SFX",
        "ShortName": "Effects\\Characters\\OutOfStamina\\Char_DS_OutOfStamina_Don.wav",
        "Path": "SFX\\Effects\\Characters\\OutOfStamina\\Char_DS_OutOfStamina_Don_755F56E2.wem"
       }
      ],
      "SwitchContainers": [
       {
        "SwitchValue": "{32631DF3-1804-4308-8ADB-CBAD960F3706}",
        "Media": [
         {
          "Id": "741923635"
         }
        ]
       },
       {
        "SwitchValue": "{7D4746AA-C04B-4E16-83FD-C95E7EF7E539}",
        "Media": [
         {
          "Id": "449576993"
         }
        ]
       },
       {
        "SwitchValue": "{D598D9B9-8A2F-4A38-BA2F-BF955F036EFA}",
        "Media": [
         {
          "Id": "342385536"
         }
        ]
       },
       {
        "SwitchValue": "{4C382281-7FAC-4DD1-B692-B02E92399DA5}",
        "Media": [
         {
          "Id": "603999956"
         }
        ]
       }
      ]
     },
     {
      "Id": "2782163419",
      "Name": "EFFECTS_Char_Repulse",
      "ObjectPath": "\\Events\\DS EVENTS\\SFX EVENTS\\EFFECTS EVENTS\\Characters\\EFFECTS_Char_Repulse",
      "GUID": "{C0B9F3ED-B545-469B-9C9B-0459B99E39E6}",
      "DurationType": "OneShot",
      "DurationMin": "17.014917",
      "DurationMax": "17.014917",
      "IncludedMemoryFiles": [
       {
        "Id": "414829784",
        "Language": "SFX",
        "ShortName": "Effects\\Characters\\Repulse\\Char_DS_Repulse_Stan.wav",
        "Path": "SFX\\Effects\\Characters\\Repulse\\Char_DS_Repulse_Stan_755F56E2.wem"
       },
       {
        "Id": "812538087",
        "Language": "SFX",
        "ShortName": "Effects\\Characters\\Repulse\\Char_DS_Repulse_Don.wav",
        "Path": "SFX\\Effects\\Characters\\Repulse\\Char_DS_Repulse_Don_755F56E2.wem"
       },
       {
        "Id": "842129645",
        "Language": "SFX",
        "ShortName": "Effects\\Characters\\Repulse\\Char_DS_Repulse_Marta.wav",
        "Path": "SFX\\Effects\\Characters\\Repulse\\Char_DS_Repulse_Marta_755F56E2.wem"
       },
       {
        "Id": "1058043377",
        "Language": "SFX",
        "ShortName": "Effects\\Characters\\Repulse\\Char_DS_Repulse_Medusa.wav",
        "Path": "SFX\\Effects\\Characters\\Repulse\\Char_DS_Repulse_Medusa_755F56E2.wem"
       }
      ],
      "SwitchContainers": [
       {
        "SwitchValue": "{32631DF3-1804-4308-8ADB-CBAD960F3706}",
        "Media": [
         {
          "Id": "812538087"
         }
        ]
       },
       {
        "SwitchValue": "{7D4746AA-C04B-4E16-83FD-C95E7EF7E539}",
        "Media": [
         {
          "Id": "842129645"
         }
        ]
       },
       {
        "SwitchValue": "{D598D9B9-8A2F-4A38-BA2F-BF955F036EFA}",
        "Media": [
         {
          "Id": "1058043377"
         }
        ]
       },
       {
        "SwitchValue": "{4C382281-7FAC-4DD1-B692-B02E92399DA5}",
        "Media": [
         {
          "Id": "414829784"
         }
        ]
       }
      ]
     },
     {
      "Id": "3761455109",
      "Name": "EFFECTS_Char_Respawn",
      "ObjectPath": "\\Events\\DS EVENTS\\SFX EVENTS\\EFFECTS EVENTS\\Characters\\EFFECTS_Char_Respawn",
      "GUID": "{85786E26-4E9E-430B-AFE0-4E0FB0D86DE8}",
      "DurationType": "OneShot",
      "DurationMin": "5.017833",
      "DurationMax": "5.017833",
      "IncludedMemoryFiles": [
       {
        "Id": "90256789",
        "Language": "SFX",
        "ShortName": "Effects\\Characters\\Respawn\\Char_Respawn_Marta_v2.wav",
        "Path": "SFX\\Effects\\Characters\\Respawn\\Char_Respawn_Marta_v2_755F56E2.wem"
       },
       {
        "Id": "536690133",
        "Language": "SFX",
        "ShortName": "Effects\\Characters\\Respawn\\Char_Respawn_Medusa_v2.wav",
        "Path": "SFX\\Effects\\Characters\\Respawn\\Char_Respawn_Medusa_v2_755F56E2.wem"
       },
       {
        "Id": "916179521",
        "Language": "SFX",
        "ShortName": "Effects\\Characters\\Respawn\\Char_Respawn_Stan_v2.wav",
        "Path": "SFX\\Effects\\Characters\\Respawn\\Char_Respawn_Stan_v2_755F56E2.wem"
       },
       {
        "Id": "955091263",
        "Language": "SFX",
        "ShortName": "Effects\\Characters\\Respawn\\Char_Respawn_Don_v2.wav",
        "Path": "SFX\\Effects\\Characters\\Respawn\\Char_Respawn_Don_v2_755F56E2.wem"
       }
      ],
      "SwitchContainers": [
       {
        "SwitchValue": "{32631DF3-1804-4308-8ADB-CBAD960F3706}",
        "Media": [
         {
          "Id": "955091263"
         }
        ]
       },
       {
        "SwitchValue": "{7D4746AA-C04B-4E16-83FD-C95E7EF7E539}",
        "Media": [
         {
          "Id": "90256789"
         }
        ]
       },
       {
        "SwitchValue": "{D598D9B9-8A2F-4A38-BA2F-BF955F036EFA}",
        "Media": [
         {
          "Id": "536690133"
         }
        ]
       },
       {
        "SwitchValue": "{4C382281-7FAC-4DD1-B692-B02E92399DA5}",
        "Media": [
         {
          "Id": "916179521"
         }
        ]
       }
      ]
     },
     {
      "Id": "2817885444",
      "Name": "EFFECTS_Char_StaminaLow",
      "ObjectPath": "\\Events\\DS EVENTS\\SFX EVENTS\\EFFECTS EVENTS\\Characters\\EFFECTS_Char_StaminaLow",
      "GUID": "{B2EDB418-B012-4007-9DEF-69A21C820ABB}",
      "DurationType": "Infinite",
      "IncludedMemoryFiles": [
       {
        "Id": "75559497",
        "Language": "SFX",
        "ShortName": "Effects\\Characters\\StaminaLow\\Char_DS_StaminaLow_Medusa.wav",
        "Path": "SFX\\Effects\\Characters\\StaminaLow\\Char_DS_StaminaLow_Medusa_3BFF05DD.wem"
       },
       {
        "Id": "300814184",
        "Language": "SFX",
        "ShortName": "Effects\\Characters\\StaminaLow\\Char_DS_StaminaLow_Don.wav",
        "Path": "SFX\\Effects\\Characters\\StaminaLow\\Char_DS_StaminaLow_Don_6B94BB93.wem"
       },
       {
        "Id": "342071506",
        "Language": "SFX",
        "ShortName": "Effects\\Characters\\StaminaLow\\Char_DS_StaminaLow_Stan.wav",
        "Path": "SFX\\Effects\\Characters\\StaminaLow\\Char_DS_StaminaLow_Stan_E40494B5.wem"
       },
       {
        "Id": "976780928",
        "Language": "SFX",
        "ShortName": "Effects\\Characters\\StaminaLow\\Char_DS_StaminaLow_Marta.wav",
        "Path": "SFX\\Effects\\Characters\\StaminaLow\\Char_DS_StaminaLow_Marta_2DC2CADE.wem"
       }
      ],
      "SwitchContainers": [
       {
        "SwitchValue": "{7D4746AA-C04B-4E16-83FD-C95E7EF7E539}",
        "Media": [
         {
          "Id": "300814184"
         }
        ]
       },
       {
        "SwitchValue": "{32631DF3-1804-4308-8ADB-CBAD960F3706}",
        "Media": [
         {
          "Id": "976780928"
         }
        ]
       },
       {
        "SwitchValue": "{D598D9B9-8A2F-4A38-BA2F-BF955F036EFA}",
        "Media": [
         {
          "Id": "75559497"
         }
        ]
       },
       {
        "SwitchValue": "{4C382281-7FAC-4DD1-B692-B02E92399DA5}",
        "Media": [
         {
          "Id": "342071506"
         }
        ]
       }
      ]
     },
     {
      "Id": "4015725077",
      "Name": "EFFECTS_Char_Staring",
      "ObjectPath": "\\Events\\DS EVENTS\\SFX EVENTS\\EFFECTS EVENTS\\Characters\\EFFECTS_Char_Staring",
      "GUID": "{0AF0DEE4-8C6A-4D20-AFA0-F404D32CD8BB}",
      "DurationType": "Infinite",
      "IncludedMemoryFiles": [
       {
        "Id": "190930142",
        "Language": "SFX",
        "ShortName": "Effects\\Characters\\Staring\\Char_DS_Staring_Stan_Layer 2.wav",
        "Path": "SFX\\Effects\\Characters\\Staring\\Char_DS_Staring_Stan_Layer 2_073B4D0C.wem"
       },
       {
        "Id": "235690549",
        "Language": "SFX",
        "ShortName": "Effects\\Characters\\Staring\\Char_DS_Staring_Marta_Layer 1.wav",
        "Path": "SFX\\Effects\\Characters\\Staring\\Char_DS_Staring_Marta_Layer 1_073B4D0C.wem"
       },
       {
        "Id": "263884465",
        "Language": "SFX",
        "ShortName": "Effects\\Characters\\Staring\\Char_DS_Staring_Medusa_Layer 2.wav",
        "Path": "SFX\\Effects\\Characters\\Staring\\Char_DS_Staring_Medusa_Layer 2_073B4D0C.wem"
       },
       {
        "Id": "280882690",
        "Language": "SFX",
        "ShortName": "Effects\\Characters\\Staring\\Char_DS_Staring_Don_Layer 2.wav",
        "Path": "SFX\\Effects\\Characters\\Staring\\Char_DS_Staring_Don_Layer 2_073B4D0C.wem"
       },
       {
        "Id": "302589316",
        "Language": "SFX",
        "ShortName": "Effects\\Characters\\Staring\\Char_DS_Staring_Marta_Layer 3.wav",
        "Path": "SFX\\Effects\\Characters\\Staring\\Char_DS_Staring_Marta_Layer 3_073B4D0C.wem"
       },
       {
        "Id": "336478755",
        "Language": "SFX",
        "ShortName": "Effects\\Characters\\Staring\\Char_DS_Staring_Don_Layer 3.wav",
        "Path": "SFX\\Effects\\Characters\\Staring\\Char_DS_Staring_Don_Layer 3_073B4D0C.wem"
       },
       {
        "Id": "538991928",
        "Language": "SFX",
        "ShortName": "Effects\\Characters\\Staring\\Char_DS_Staring_Stan_Layer 1.wav",
        "Path": "SFX\\Effects\\Characters\\Staring\\Char_DS_Staring_Stan_Layer 1_073B4D0C.wem"
       },
       {
        "Id": "625901081",
        "Language": "SFX",
        "ShortName": "Effects\\Characters\\Staring\\Char_DS_Staring_Medusa_Layer 1.wav",
        "Path": "SFX\\Effects\\Characters\\Staring\\Char_DS_Staring_Medusa_Layer 1_073B4D0C.wem"
       },
       {
        "Id": "721720172",
        "Language": "SFX",
        "ShortName": "Effects\\Characters\\Staring\\Char_DS_Staring_Marta_Layer 2.wav",
        "Path": "SFX\\Effects\\Characters\\Staring\\Char_DS_Staring_Marta_Layer 2_073B4D0C.wem"
       },
       {
        "Id": "842275222",
        "Language": "SFX",
        "ShortName": "Effects\\Characters\\Staring\\Char_DS_Staring_Medusa_Layer 3.wav",
        "Path": "SFX\\Effects\\Characters\\Staring\\Char_DS_Staring_Medusa_Layer 3_073B4D0C.wem"
       },
       {
        "Id": "937154736",
        "Language": "SFX",
        "ShortName": "Effects\\Characters\\Staring\\Char_DS_Staring_Stan_Layer 3.wav",
        "Path": "SFX\\Effects\\Characters\\Staring\\Char_DS_Staring_Stan_Layer 3_073B4D0C.wem"
       },
       {
        "Id": "1005458430",
        "Language": "SFX",
        "ShortName": "Effects\\Characters\\Staring\\Char_DS_Staring_Don_Layer 1.wav",
        "Path": "SFX\\Effects\\Characters\\Staring\\Char_DS_Staring_Don_Layer 1_073B4D0C.wem"
       }
      ],
      "SwitchContainers": [
       {
        "SwitchValue": "{4C382281-7FAC-4DD1-B692-B02E92399DA5}",
        "Media": [
         {
          "Id": "538991928"
         },
         {
          "Id": "190930142"
         },
         {
          "Id": "937154736"
         }
        ]
       },
       {
        "SwitchValue": "{D598D9B9-8A2F-4A38-BA2F-BF955F036EFA}",
        "Media": [
         {
          "Id": "625901081"
         },
         {
          "Id": "263884465"
         },
         {
          "Id": "842275222"
         }
        ]
       },
       {
        "SwitchValue": "{7D4746AA-C04B-4E16-83FD-C95E7EF7E539}",
        "Media": [
         {
          "Id": "302589316"
         },
         {
          "Id": "235690549"
         },
         {
          "Id": "721720172"
         }
        ]
       },
       {
        "SwitchValue": "{32631DF3-1804-4308-8ADB-CBAD960F3706}",
        "Media": [
         {
          "Id": "336478755"
         },
         {
          "Id": "1005458430"
         },
         {
          "Id": "280882690"
         }
        ]
       }
      ]
     },
     {
      "Id": "630278747",
      "Name": "EFFECTS_Char_Visible",
      "ObjectPath": "\\Events\\DS EVENTS\\SFX EVENTS\\EFFECTS EVENTS\\Characters\\EFFECTS_Char_Visible",
      "GUID": "{B31C70C4-37ED-4343-94D6-64783821AE8B}",
      "DurationType": "OneShot",
      "DurationMin": "0.226038",
      "DurationMax": "0.233584",
      "IncludedMemoryFiles": [
       {
        "Id": "212961546",
        "Language": "SFX",
        "ShortName": "Effects\\Characters\\Visible\\Char_Visible_Stan.wav",
        "Path": "SFX\\Effects\\Characters\\Visible\\Char_Visible_Stan_755F56E2.wem"
       },
       {
        "Id": "355317353",
        "Language": "SFX",
        "ShortName": "Effects\\Characters\\Visible\\Char_Visible_Don.wav",
        "Path": "SFX\\Effects\\Characters\\Visible\\Char_Visible_Don_755F56E2.wem"
       },
       {
        "Id": "606016933",
        "Language": "SFX",
        "ShortName": "Effects\\Characters\\Visible\\Char_Visible_Marta.wav",
        "Path": "SFX\\Effects\\Characters\\Visible\\Char_Visible_Marta_755F56E2.wem"
       },
       {
        "Id": "1013318426",
        "Language": "SFX",
        "ShortName": "Effects\\Characters\\Visible\\Char_Visible_Medusa.wav",
        "Path": "SFX\\Effects\\Characters\\Visible\\Char_Visible_Medusa_755F56E2.wem"
       }
      ],
      "SwitchContainers": [
       {
        "SwitchValue": "{32631DF3-1804-4308-8ADB-CBAD960F3706}",
        "Media": [
         {
          "Id": "355317353"
         }
        ]
       },
       {
        "SwitchValue": "{7D4746AA-C04B-4E16-83FD-C95E7EF7E539}",
        "Media": [
         {
          "Id": "606016933"
         }
        ]
       },
       {
        "SwitchValue": "{D598D9B9-8A2F-4A38-BA2F-BF955F036EFA}",
        "Media": [
         {
          "Id": "1013318426"
         }
        ]
       },
       {
        "SwitchValue": "{4C382281-7FAC-4DD1-B692-B02E92399DA5}",
        "Media": [
         {
          "Id": "212961546"
         }
        ]
       }
      ]
     },
     {
      "Id": "3978900703",
      "Name": "Stop_EFFECTS_Char_Damage",
      "ObjectPath": "\\Events\\DS EVENTS\\SFX EVENTS\\EFFECTS EVENTS\\Characters\\Stop_EFFECTS_Char_Damage",
      "GUID": "{98275331-A3A2-4086-98FE-B46C3878E9BF}",
      "MaxAttenuation": "0.000000",
      "DurationType": "OneShot",
      "DurationMin": "0.000000",
      "DurationMax": "0.000000"
     },
     {
      "Id": "1985231276",
      "Name": "Stop_EFFECTS_Char_Staring",
      "ObjectPath": "\\Events\\DS EVENTS\\SFX EVENTS\\EFFECTS EVENTS\\Characters\\Stop_EFFECTS_Char_Staring",
      "GUID": "{83885303-55BD-43DF-A8C6-E066539DB22F}",
      "MaxAttenuation": "0.000000",
      "DurationType": "OneShot",
      "DurationMin": "0.000000",
      "DurationMax": "0.000000"
     }
    ],
    "GameParameters": [
     {
      "Id": "655017018",
      "Name": "RTPC_Character_Stamina",
      "ObjectPath": "\\Game Parameters\\DS RTPC\\GENERAL RTPC\\Characters\\Stamina\\RTPC_Character_Stamina",
      "GUID": "{F62C5D8B-65A7-407D-A9BB-D2C1490D89F0}"
     },
     {
      "Id": "3664139661",
      "Name": "RTPC_Character_Health",
      "ObjectPath": "\\Game Parameters\\DS RTPC\\GENERAL RTPC\\Characters\\Health\\RTPC_Character_Health",
      "GUID": "{C0DBEC9B-8DA5-474F-BB0B-C06A1DDFCB32}"
     }
    ],
    "SwitchGroups": [
     {
      "Id": "853932152",
      "Name": "SWITCHES_General_Player",
      "ObjectPath": "\\Switches\\DS SWITCHES\\GENERAL SWITCHES\\Player\\SWITCHES_General_Player",
      "GUID": "{BEA2361C-D3B6-44A6-8E5E-0B6A789084CB}",
      "Switches": [
       {
        "Id": "1635194252",
        "Name": "P1",
        "ObjectPath": "\\Switches\\DS SWITCHES\\GENERAL SWITCHES\\Player\\SWITCHES_General_Player\\P1",
        "GUID": "{D760C32B-548A-4771-BD4D-62228DF42DDA}"
       },
       {
        "Id": "1635194255",
        "Name": "P2",
        "ObjectPath": "\\Switches\\DS SWITCHES\\GENERAL SWITCHES\\Player\\SWITCHES_General_Player\\P2",
        "GUID": "{35768ADC-1EE7-41CB-B85A-C0E760171E75}"
       },
       {
        "Id": "1635194254",
        "Name": "P3",
        "ObjectPath": "\\Switches\\DS SWITCHES\\GENERAL SWITCHES\\Player\\SWITCHES_General_Player\\P3",
        "GUID": "{D13B0DC0-2563-4CEB-A2D8-ACF26144B33B}"
       },
       {
        "Id": "1635194249",
        "Name": "P4",
        "ObjectPath": "\\Switches\\DS SWITCHES\\GENERAL SWITCHES\\Player\\SWITCHES_General_Player\\P4",
        "GUID": "{3C7A335C-04AB-4308-B86B-8D5A611458BD}"
       }
      ]
     },
     {
      "Id": "3424733800",
      "Name": "SWITCHES_General_Character",
      "ObjectPath": "\\Switches\\DS SWITCHES\\GENERAL SWITCHES\\Character\\SWITCHES_General_Character",
      "GUID": "{9DAC723B-00E9-4DF5-883B-07F8F839D2C9}",
      "Switches": [
       {
        "Id": "1986576095",
        "Name": "Stanislas",
        "ObjectPath": "\\Switches\\DS SWITCHES\\GENERAL SWITCHES\\Character\\SWITCHES_General_Character\\Stanislas",
        "GUID": "{4C382281-7FAC-4DD1-B692-B02E92399DA5}"
       },
       {
        "Id": "1358509506",
        "Name": "Marta",
        "ObjectPath": "\\Switches\\DS SWITCHES\\GENERAL SWITCHES\\Character\\SWITCHES_General_Character\\Marta",
        "GUID": "{7D4746AA-C04B-4E16-83FD-C95E7EF7E539}"
       },
       {
        "Id": "2609729838",
        "Name": "Medusa",
        "ObjectPath": "\\Switches\\DS SWITCHES\\GENERAL SWITCHES\\Character\\SWITCHES_General_Character\\Medusa",
        "GUID": "{D598D9B9-8A2F-4A38-BA2F-BF955F036EFA}"
       },
       {
        "Id": "546651172",
        "Name": "Don",
        "ObjectPath": "\\Switches\\DS SWITCHES\\GENERAL SWITCHES\\Character\\SWITCHES_General_Character\\Don",
        "GUID": "{32631DF3-1804-4308-8ADB-CBAD960F3706}"
       }
      ]
     }
    ]
   }
  ]
 }
}